{
    "author" : [
        "CrunchBang"
    ],
    "install_msg" : "Thanks for installing Wallet!",
    "name" : "Wallet",
    "short" : "Provides Helium wallet information",
    "description" : "Get current Helium wallet balance info and associate a wallet with your profile",
    "required_cogs": {},
    "requirements": [
        "base58"
    ],
    "min_bot_version": "3.1.8",
    "max_bot_version": "0.0.0",
    "min_python_version": [3, 8, 0],
    "tags": [],
    "type": "COG"
}